{
  "type": "service_account",
  "project_id": "gsheets-api-352818",
  "private_key_id": "5a383b25f9cd4058e7b870274d5b218d7bbb8733",
  "private_key": "-----BEGIN PRIVATE KEY-----\nMIIEvAIBADANBgkqhkiG9w0BAQEFAASCBKYwggSiAgEAAoIBAQClK8W6RoXmmj0z\nGYt8YPt1fe9rqRTmqzwrO7Ddt2K38B60aCBNjOzHTwLt4ZaZf/x/BJckKl66CS5S\n+aKOG42cHKjPgKVNc5SOHukT5T6/b1prjp5Ya8DizL5ZSDFZuj2o13LCWC/Z8r6/\nM6yXNoxUXk16xCJJGUH5Yg7bmQQ1v3U7EmPEmiG4C45GTZ9OuQSwxVqtxU0Ko3R0\nGrOu7z1vzdpKnQitpqtgENHyEDwTUVa8hT2WfxmR3vtqY4uIiugJrnKDLBfUf5XR\ntE93YFC7fQ7gQZZWoN/2G54iDf/4uY3HasIOHRIpgm02ZS631wVpC5j5BcwyHdC4\nb4cs+IqZAgMBAAECggEAHIUfpf+96LjqxttLFM25NcsqT3R5ZbAdGlj6+/nJq7mk\nT6HoLAPgsbSQrKsmgjhRjMwp3eaMB0MFEvJEcZXL4LApLPVJdcN2nAi11cfgixUq\n74YHjPyEKJVSa9+1l8j7Ex+qkui/0HokGidNzqluVzYWWlOqGOWp2Oon5x63laED\ncQEftR9VLfnCTFEs28fOjO4ORBvhbyF3Z4T6/lb0EM482eaY8Cd1zZgSy8PEKiPf\n+R1vm3dMO3XCVjvwCQIed/wYIgetOn726qaY1qNRjLj+A9dMIG4P2V5oojB2/H+H\nO9e/Ao8rk9kUeVl2GMGeK9WqABK+WcTeQ7VHeMqWhQKBgQDkaKzhuIJWkDMB8zrP\n0Bq1gbwP8tr7Pg5fROv+isfk4ReA8Q9OVs3cnJqQ/Bwjgff5XUMl55I5Y8I22dSY\nFTx7zvSomUKNqc1Bcd7UIZ4pOcf2ocQP5NAjPIFp0Eo5cHwI52IoGKSAKTqXpqT8\ntJ2wVLwNJngVDmCtg2W/rkkO9QKBgQC5H4agwdQcrfgt5awm7N7Jaw0K9DyrZQfm\n0IK1rUqfN9dhNq61kN6t260gcGx7eYhTffVv9qmxtrNYwJ/pYQkKZB+JIcEQAJSs\ndo7IFOQW2CnSEVckNpje5coM8WiJIV7dYd0XNjqfIgkEGlkUDM+bxnQ7Zn4S4lr2\nJEqA3FW+lQKBgGCD7tGusry7UCJ50hcwO6kI+hvPJkNWFKKjMAmuQQtxJgphUnNq\n8LBRKGstbQKAD/W6N/6TXNGNWursnw3oo1c5u15m7J2J6+bEpEEFN5z6AoowDvYc\nXOsWzSSWVFbzNiZZB7wjtZdGVLDyRPNXqu5wz8nKwKE9IxMO2/bkQZDlAoGALMTU\nAQJ+8mScFTVq2YsFIb6yy8he97AaJhac1aTP3AtcGdVokN41C+SJTMQDaCTu9AoN\nFgOX7DNb0gXbZkwiLJIkEjzIfL83NTICu55ZvrCOBJBO+6H8fEMkBtdGyYr5bx5g\nomFp8dwARC6/BhtHBcwLheX2bUiyaL5ECj++uLUCgYA7zHQPc6cHfnmKp/Gx4IQp\ngfw1VzzyBzqfkEj98F3nZp+foAXFe7hhzsRZNyq8JGa582gw16D0NKfQb49852yx\nRUAVYBNyQIazkTgbPWYVt/uQz5vo5EHmj9K563aWOYTawfxlrWVB89ko9fXC1tzW\nOSDJI3eWmP1e6ihncsLm/w==\n-----END PRIVATE KEY-----\n",
  "client_email": "rps-198@gsheets-api-352818.iam.gserviceaccount.com",
  "client_id": "116393424219068440389",
  "auth_uri": "https://accounts.google.com/o/oauth2/auth",
  "token_uri": "https://oauth2.googleapis.com/token",
  "auth_provider_x509_cert_url": "https://www.googleapis.com/oauth2/v1/certs",
  "client_x509_cert_url": "https://www.googleapis.com/robot/v1/metadata/x509/rps-198%40gsheets-api-352818.iam.gserviceaccount.com"
}
